<?xml version="1.0" encoding="UTF-8" standalone="no"?>
<svg
   xmlns:dc="http://purl.org/dc/elements/1.1/"
   xmlns:cc="http://creativecommons.org/ns#"
   xmlns:rdf="http://www.w3.org/1999/02/22-rdf-syntax-ns#"
   xmlns:svg="http://www.w3.org/2000/svg"
   xmlns="http://www.w3.org/2000/svg"
   version="1.1"
   id="svg7023"
   viewBox="0 0 39.230001 33.978751"
   height="9.5895586mm"
   width="11.071578mm">
  <defs
     id="defs7025" />
  <metadata
     id="metadata7028">
    <rdf:RDF>
      <cc:Work
         rdf:about="">
        <dc:format>image/svg+xml</dc:format>
        <dc:type
           rdf:resource="http://purl.org/dc/dcmitype/StillImage" />
        <dc:title></dc:title>
      </cc:Work>
    </rdf:RDF>
  </metadata>
  <g
     transform="translate(-100.385,-386.8014)"
     id="layer1">
    <g
       transform="matrix(1.25,0,0,-1.25,101.08788,403.7904)"
       id="g4974">
      <path
         id="path4976"
         style="fill:#12110c;fill-opacity:1;fill-rule:nonzero;stroke:none"
         d="m 0,0 7.565,-13.105 15.129,0 L 30.259,0 22.694,13.103 7.565,13.103 0,0 Z" />
    </g>
    <g
       transform="matrix(1.25,0,0,-1.25,129.80875,420.78015)"
       id="g4978">
      <path
         id="path4980"
         style="fill:#868483;fill-opacity:1;fill-rule:nonzero;stroke:none"
         d="m 0,0 -15.692,0 -7.847,13.592 7.847,13.591 L 0,27.183 7.845,13.592 0,0 Z m -15.132,0.975 14.569,0 7.284,12.617 -7.284,12.616 -14.569,0 -7.282,-12.616 7.282,-12.617 z" />
    </g>
    <g
       transform="matrix(1.25,0,0,-1.25,120.297,399.2519)"
       id="g4982">
      <path
         id="path4984"
         style="fill:#ffffff;fill-opacity:1;fill-rule:nonzero;stroke:none"
         d="M 0,0 -7.639,4.333 -6.678,6.028 0,2.24 6.68,6.028 7.641,4.333 0,0 Z" />
    </g>
    <g
       transform="matrix(1.25,0,0,-1.25,110.131,415.16627)"
       id="g4986">
      <path
         id="path4988"
         style="fill:#ffffff;fill-opacity:1;fill-rule:nonzero;stroke:none"
         d="M 0,0 0,10.36 8.11,14.959 16.267,10.756 16.267,0 8.133,4.612 0,0 Z m 8.133,6.853 6.185,-3.507 0,6.222 -6.164,3.176 -6.206,-3.519 0,-5.879 6.185,3.507 z" />
    </g>
  </g>
</svg>
