<?xml version="1.0" encoding="UTF-8" standalone="no"?>
<svg
   xmlns:dc="http://purl.org/dc/elements/1.1/"
   xmlns:cc="http://creativecommons.org/ns#"
   xmlns:rdf="http://www.w3.org/1999/02/22-rdf-syntax-ns#"
   xmlns:svg="http://www.w3.org/2000/svg"
   xmlns="http://www.w3.org/2000/svg"
   version="1.1"
   id="svg8733"
   viewBox="0 0 29.759127 27.3725"
   height="7.7251277mm"
   width="8.3986864mm">
  <defs
     id="defs8735" />
  <metadata
     id="metadata8738">
    <rdf:RDF>
      <cc:Work
         rdf:about="">
        <dc:format>image/svg+xml</dc:format>
        <dc:type
           rdf:resource="http://purl.org/dc/dcmitype/StillImage" />
        <dc:title></dc:title>
      </cc:Work>
    </rdf:RDF>
  </metadata>
  <g
     transform="translate(-315.74718,-398.45145)"
     id="layer1">
    <path
       id="path7329"
       style="fill:none;fill-opacity:1;fill-rule:nonzero;stroke:none"
       d="m 325.97946,425.30308 c -1.62375,0 -3.6175,-1.15125 -4.43,-2.55625 l -4.6475,-8.05125 c -0.8125,-1.405 -0.8125,-3.7075 -10e-4,-5.11375 l 4.65,-8.0525 c 0.81125,-1.40625 2.805,-2.5575 4.42875,-2.5575 l 9.29625,0 c 1.62375,0 3.61625,1.15125 4.42875,2.5575 l 4.6475,8.0525 c 0.81125,1.40625 0.81125,3.70875 0,5.115 l -4.6475,8.04875 c -0.8125,1.40625 -2.805,2.5575 -4.42875,2.5575 l -9.29625,0 z" />
    <path
       id="path7333"
       style="fill:none;stroke:#3a3a3a;stroke-width:1.12874997;stroke-linecap:butt;stroke-linejoin:miter;stroke-miterlimit:4;stroke-dasharray:none;stroke-opacity:1"
       d="m 325.99358,425.25957 c -1.61875,0 -3.60625,-1.1475 -4.41625,-2.54875 l -4.63375,-8.02375 c -0.81,-1.40125 -0.81,-3.695 -10e-4,-5.09625 l 4.635,-8.02625 c 0.81,-1.4025 2.7975,-2.54875 4.41625,-2.54875 l 9.2675,0 c 1.61875,0 3.60625,1.14625 4.41625,2.54875 l 4.6325,8.02625 c 0.81,1.40125 0.81,3.695 0,5.0975 l -4.6325,8.0225 c -0.81,1.40125 -2.7975,2.54875 -4.41625,2.54875 l -9.2675,0 z" />
    <path
       id="path7337"
       style="fill:#3a3a3a;fill-opacity:1;fill-rule:nonzero;stroke:none"
       d="m 331.99209,413.50845 8.17625,2.35375 -5.8175,5.8175 -2.35875,-8.17125 z" />
    <path
       id="path7341"
       style="fill:#3a3a3a;fill-opacity:1;fill-rule:nonzero;stroke:none"
       d="m 329.25559,413.5027 -2.35375,8.1775 -5.8175,-5.81875 8.17125,-2.35875 z" />
    <path
       id="path7345"
       style="fill:#3a3a3a;fill-opacity:1;fill-rule:nonzero;stroke:none"
       d="m 329.26071,410.7667 -8.17625,-2.35375 5.8175,-5.8175 2.35875,8.17125 z" />
    <path
       id="path7349"
       style="fill:#3a3a3a;fill-opacity:1;fill-rule:nonzero;stroke:none"
       d="m 331.99733,410.77232 2.35375,-8.1775 5.8175,5.81875 -8.17125,2.35875 z" />
  </g>
  <path
     d="M 16.969353,14.809568 C 14.326367,20.012947 28.2383,20.474809 23.805252,24.270677 19.372204,28.066546 21.057458,14.249342 15.50924,16.059813 9.961022,17.870284 19.471658,28.034092 13.652936,27.583539 7.8342136,27.132985 18.796106,18.5544 13.592727,15.911414 8.3893482,13.268428 7.9274859,27.180361 4.1316176,22.747313 0.33574941,18.314266 14.152953,19.999519 12.342482,14.451301 10.532011,8.9030835 0.36820268,18.413719 0.81875655,12.594997 1.2693104,6.776275 9.8478946,17.738167 12.490881,12.534788 15.133867,7.3314096 1.221934,6.8695473 5.6549817,3.0736791 10.088029,-0.72218916 8.402776,13.095014 13.950994,11.284543 19.499212,9.4740721 9.9885757,-0.6897359 15.807298,-0.23918202 21.62602,0.21137185 10.664128,8.789956 15.867507,11.432942 c 5.203378,2.642986 5.665241,-11.26894654 9.461109,-6.8358989 3.795868,4.4330476 -10.021335,2.7477943 -8.210864,8.2960119 1.810471,5.548218 11.974279,-3.9624179 11.523725,1.856304 -0.450554,5.818722 -9.029138,-5.1431698 -11.672124,0.06021 z"
     id="path4136"
     style="fill:#8f0300;fill-opacity:1;stroke:#8f0300;stroke-width:0.04837856;stroke-miterlimit:4;stroke-dasharray:none;stroke-dashoffset:0;stroke-opacity:1" />
</svg>
