<?xml version="1.0" encoding="UTF-8" standalone="no"?>
<svg
   xmlns:dc="http://purl.org/dc/elements/1.1/"
   xmlns:cc="http://creativecommons.org/ns#"
   xmlns:rdf="http://www.w3.org/1999/02/22-rdf-syntax-ns#"
   xmlns:svg="http://www.w3.org/2000/svg"
   xmlns="http://www.w3.org/2000/svg"
   xmlns:sodipodi="http://sodipodi.sourceforge.net/DTD/sodipodi-0.dtd"
   xmlns:inkscape="http://www.inkscape.org/namespaces/inkscape"
   version="1.1"
   id="svg8733"
   viewBox="0 0 29.759127 27.372498"
   height="7.7251272mm"
   width="8.3986864mm"
   inkscape:version="0.91 r13725"
   sodipodi:docname="alien2_out.svg">
  <sodipodi:namedview
     pagecolor="#ffffff"
     bordercolor="#666666"
     borderopacity="1"
     objecttolerance="10"
     gridtolerance="10"
     guidetolerance="10"
     inkscape:pageopacity="0"
     inkscape:pageshadow="2"
     inkscape:window-width="1594"
     inkscape:window-height="857"
     id="namedview10"
     showgrid="false"
     inkscape:zoom="17.243585"
     inkscape:cx="12.558321"
     inkscape:cy="10.606935"
     inkscape:window-x="0"
     inkscape:window-y="40"
     inkscape:window-maximized="0"
     inkscape:current-layer="svg8733" />
  <defs
     id="defs8735" />
  <metadata
     id="metadata8738">
    <rdf:RDF>
      <cc:Work
         rdf:about="">
        <dc:format>image/svg+xml</dc:format>
        <dc:type
           rdf:resource="http://purl.org/dc/dcmitype/StillImage" />
        <dc:title></dc:title>
      </cc:Work>
    </rdf:RDF>
  </metadata>
  <g
     transform="translate(-250.86345,-376.61465)"
     id="layer1">
    <path
       id="path7361"
       style="fill:none;fill-opacity:1;fill-rule:nonzero;stroke:none"
       d="m 261.09572,403.46639 c -1.62375,0 -3.6175,-1.15125 -4.43,-2.55625 l -4.6475,-8.05125 c -0.8125,-1.405 -0.8125,-3.7075 -0.001,-5.11375 l 4.65,-8.0525 c 0.81125,-1.40625 2.805,-2.5575 4.42875,-2.5575 l 9.29625,0 c 1.62375,0 3.61625,1.15125 4.42875,2.5575 l 4.6475,8.0525 c 0.81125,1.40625 0.81125,3.70875 0,5.115 l -4.6475,8.04875 c -0.8125,1.40625 -2.805,2.5575 -4.42875,2.5575 l -9.29625,0 z" />
    <path
       id="path7365"
       style="fill:none;stroke:#3a3a3a;stroke-width:1.12874997;stroke-linecap:butt;stroke-linejoin:miter;stroke-miterlimit:4;stroke-dasharray:none;stroke-opacity:1"
       d="m 261.10985,403.42277 c -1.61875,0 -3.60625,-1.1475 -4.41625,-2.54875 l -4.63375,-8.02375 c -0.81,-1.40125 -0.81,-3.695 -0.001,-5.09625 l 4.635,-8.02625 c 0.81,-1.4025 2.7975,-2.54875 4.41625,-2.54875 l 9.2675,0 c 1.61875,0 3.60625,1.14625 4.41625,2.54875 l 4.6325,8.02625 c 0.81,1.40125 0.81,3.695 0,5.0975 l -4.6325,8.0225 c -0.81,1.40125 -2.7975,2.54875 -4.41625,2.54875 l -9.2675,0 z" />
    <path
       id="path7369"
       style="fill:#3a3a3a;fill-opacity:1;fill-rule:nonzero;stroke:none"
       d="m 265.74635,388.40552 -4.1175,-7.44625 8.2275,0 -4.11,7.44625 z" />
    <path
       id="path7373"
       style="fill:#3a3a3a;fill-opacity:1;fill-rule:nonzero;stroke:none"
       d="m 265.73885,392.19602 4.1175,7.44625 -8.2275,0 4.11,-7.44625 z" />
  </g>
</svg>
