<?xml version="1.0" encoding="UTF-8" standalone="no"?>
<svg
   xmlns:dc="http://purl.org/dc/elements/1.1/"
   xmlns:cc="http://creativecommons.org/ns#"
   xmlns:rdf="http://www.w3.org/1999/02/22-rdf-syntax-ns#"
   xmlns:svg="http://www.w3.org/2000/svg"
   xmlns="http://www.w3.org/2000/svg"
   width="8.3986864mm"
   height="7.7251277mm"
   viewBox="0 0 29.759127 27.3725"
   id="svg8733"
   version="1.1">
  <defs
     id="defs8735" />
  <metadata
     id="metadata8738">
    <rdf:RDF>
      <cc:Work
         rdf:about="">
        <dc:format>image/svg+xml</dc:format>
        <dc:type
           rdf:resource="http://purl.org/dc/dcmitype/StillImage" />
        <dc:title></dc:title>
      </cc:Work>
    </rdf:RDF>
  </metadata>
  <g
     id="layer1"
     transform="translate(-315.74718,-398.45145)">
    <path
       d="m 325.97946,425.30308 c -1.62375,0 -3.6175,-1.15125 -4.43,-2.55625 l -4.6475,-8.05125 c -0.8125,-1.405 -0.8125,-3.7075 -10e-4,-5.11375 l 4.65,-8.0525 c 0.81125,-1.40625 2.805,-2.5575 4.42875,-2.5575 l 9.29625,0 c 1.62375,0 3.61625,1.15125 4.42875,2.5575 l 4.6475,8.0525 c 0.81125,1.40625 0.81125,3.70875 0,5.115 l -4.6475,8.04875 c -0.8125,1.40625 -2.805,2.5575 -4.42875,2.5575 l -9.29625,0 z"
       style="fill:none;fill-opacity:1;fill-rule:nonzero;stroke:none"
       id="path7329" />
    <path
       d="m 325.99358,425.25957 c -1.61875,0 -3.60625,-1.1475 -4.41625,-2.54875 l -4.63375,-8.02375 c -0.81,-1.40125 -0.81,-3.695 -10e-4,-5.09625 l 4.635,-8.02625 c 0.81,-1.4025 2.7975,-2.54875 4.41625,-2.54875 l 9.2675,0 c 1.61875,0 3.60625,1.14625 4.41625,2.54875 l 4.6325,8.02625 c 0.81,1.40125 0.81,3.695 0,5.0975 l -4.6325,8.0225 c -0.81,1.40125 -2.7975,2.54875 -4.41625,2.54875 l -9.2675,0 z"
       style="fill:none;stroke:#3a3a3a;stroke-width:1.12874997;stroke-linecap:butt;stroke-linejoin:miter;stroke-miterlimit:4;stroke-dasharray:none;stroke-opacity:1"
       id="path7333" />
    <path
       d="m 331.99209,413.50845 8.17625,2.35375 -5.8175,5.8175 -2.35875,-8.17125 z"
       style="fill:#3a3a3a;fill-opacity:1;fill-rule:nonzero;stroke:none"
       id="path7337" />
    <path
       d="m 329.25559,413.5027 -2.35375,8.1775 -5.8175,-5.81875 8.17125,-2.35875 z"
       style="fill:#3a3a3a;fill-opacity:1;fill-rule:nonzero;stroke:none"
       id="path7341" />
    <path
       d="m 329.26071,410.7667 -8.17625,-2.35375 5.8175,-5.8175 2.35875,8.17125 z"
       style="fill:#3a3a3a;fill-opacity:1;fill-rule:nonzero;stroke:none"
       id="path7345" />
    <path
       d="m 331.99733,410.77232 2.35375,-8.1775 5.8175,5.81875 -8.17125,2.35875 z"
       style="fill:#3a3a3a;fill-opacity:1;fill-rule:nonzero;stroke:none"
       id="path7349" />
  </g>
</svg>
