<?xml version="1.0" encoding="UTF-8" standalone="no"?>
<svg
   xmlns:dc="http://purl.org/dc/elements/1.1/"
   xmlns:cc="http://creativecommons.org/ns#"
   xmlns:rdf="http://www.w3.org/1999/02/22-rdf-syntax-ns#"
   xmlns:svg="http://www.w3.org/2000/svg"
   xmlns="http://www.w3.org/2000/svg"
   version="1.1"
   id="svg4921"
   viewBox="0 0 6.5025 15.130131"
   height="4.2700591mm"
   width="1.83515mm">
  <defs
     id="defs4923" />
  <metadata
     id="metadata4926">
    <rdf:RDF>
      <cc:Work
         rdf:about="">
        <dc:format>image/svg+xml</dc:format>
        <dc:type
           rdf:resource="http://purl.org/dc/dcmitype/StillImage" />
        <dc:title></dc:title>
      </cc:Work>
    </rdf:RDF>
  </metadata>
  <g
     transform="translate(-239.60589,-553.36857)"
     id="layer1">
    <path
       id="path4205"
       style="fill:#00a0ff;fill-opacity:1;fill-rule:nonzero;stroke:none"
       d="m 240.86964,553.36857 0.2925,0.50875 -0.96875,0.56625 0,1.37125 2.66375,1.5375 2.66375,-1.5375 0,-1.37125 -0.96875,-0.56625 0.29375,-0.50875 1.2625,0.7375 0,5.46125 -3.25125,1.8775 -3.25125,-1.8775 0,-5.46125 1.26375,-0.7375 z m 4.65125,3.1225 -2.66375,1.53875 -2.66375,-1.53875 0,2.7375 2.66375,1.53875 2.66375,-1.53875 0,-2.7375 z" />
    <path
       id="path4209"
       style="fill:#00a0ff;fill-opacity:1;fill-rule:nonzero;stroke:none"
       d="m 242.25052,562.85495 -2.5875,-1.49375 0.29375,-0.5075 2.90125,1.675 2.9,-1.675 0.2925,0.5075 -2.60625,1.50625 2.66375,1.53875 0,4.0925 -3.25,-1.87875 -3.25125,1.87875 0,-4.2575 2.64375,-1.38625 z m 0.6075,3.08875 2.66375,1.53875 0,-2.73875 -2.67125,-1.5425 -2.6575,1.395 0,2.88625 2.665,-1.53875 z" />
  </g>
</svg>
