<?xml version="1.0" encoding="UTF-8" standalone="no"?>
<svg
   xmlns:dc="http://purl.org/dc/elements/1.1/"
   xmlns:cc="http://creativecommons.org/ns#"
   xmlns:rdf="http://www.w3.org/1999/02/22-rdf-syntax-ns#"
   xmlns:svg="http://www.w3.org/2000/svg"
   xmlns="http://www.w3.org/2000/svg"
   xmlns:sodipodi="http://sodipodi.sourceforge.net/DTD/sodipodi-0.dtd"
   xmlns:inkscape="http://www.inkscape.org/namespaces/inkscape"
   version="1.1"
   id="svg8098"
   viewBox="0 0 27.74475 25.482499"
   height="7.1917276mm"
   width="7.8301849mm"
   inkscape:version="0.91 r13725"
   sodipodi:docname="sedatives.svg">
  <sodipodi:namedview
     pagecolor="#ffffff"
     bordercolor="#666666"
     borderopacity="1"
     objecttolerance="10"
     gridtolerance="10"
     guidetolerance="10"
     inkscape:pageopacity="0"
     inkscape:pageshadow="2"
     inkscape:window-width="1362"
     inkscape:window-height="732"
     id="namedview15"
     showgrid="false"
     inkscape:zoom="18.522516"
     inkscape:cx="10.680273"
     inkscape:cy="10.509001"
     inkscape:window-x="0"
     inkscape:window-y="34"
     inkscape:window-maximized="0"
     inkscape:current-layer="svg8098" />
  <defs
     id="defs8100" />
  <metadata
     id="metadata8103">
    <rdf:RDF>
      <cc:Work
         rdf:about="">
        <dc:format>image/svg+xml</dc:format>
        <dc:type
           rdf:resource="http://purl.org/dc/dcmitype/StillImage" />
        <dc:title></dc:title>
      </cc:Work>
    </rdf:RDF>
  </metadata>
  <g
     transform="translate(-271.84205,-513.90667)"
     id="layer1">
    <path
       id="path6981"
       style="fill:none;stroke:#ffffff;stroke-width:0.74249995;stroke-linecap:butt;stroke-linejoin:miter;stroke-miterlimit:4;stroke-dasharray:none;stroke-opacity:1"
       d="m 281.82849,535.24167 -2.955,-2.54875 3.885,-1.38 5.91,0 3.885,1.38 -2.95375,2.54875 -7.77125,0 z" />
    <path
       id="path6997"
       style="fill:#ffffff;fill-opacity:1;fill-rule:nonzero;stroke:none"
       d="m 288.17799,517.51142 c 0,0 -0.005,4.50875 -0.63625,8.4525 l 4.09375,-0.70125 -3.32875,4.41875 -2.57375,3.40125 -2.57375,-3.40125 -3.3675,-4.41875 4.1425,0.71 c -0.64375,-3.95125 -0.645,-8.46125 -0.645,-8.46125 l 4.88875,0 z m 0.9375,-0.93625 -0.9375,0 -4.88875,0 -0.9375,0 10e-4,0.93625 c 0,0.1675 0.006,3.7275 0.47,7.32125 l -2.87375,-0.4925 -2.34375,-0.40125 1.44125,1.89125 3.3675,4.42 2.57125,3.3975 0.7475,0.9875 0.74625,-0.9875 2.575,-3.40125 3.32875,-4.42 1.42,-1.885 -2.32625,0.39875 -2.8275,0.48375 c 0.455,-3.58625 0.465,-7.14375 0.465,-7.31125 l 10e-4,-0.9375 z" />
    <path
       id="path7001"
       style="fill:#ffffff;fill-opacity:1;fill-rule:nonzero;stroke:none"
       d="m 280.87761,526.68842 9.685,0 0.9775,-1.29875 -11.6525,0 0.99,1.29875 z" />
    <path
       id="path7013"
       style="fill:#ffffff;fill-opacity:1;fill-rule:nonzero;stroke:none"
       d="m 283.43361,520.73255 c 0.0387,0.51875 0.0888,1.08 0.15125,1.67375 l 4.29875,0 c 0.0625,-0.59375 0.11125,-1.155 0.15,-1.67375 l -4.6,0 z" />
    <path
       id="path7017"
       style="fill:#ffffff;fill-opacity:1;fill-rule:nonzero;stroke:none"
       d="m 283.85924,524.54617 3.755,0 c 0.075,-0.50625 0.14125,-1.0025 0.1975,-1.48625 l -4.15375,0 c 0.0575,0.48375 0.125,0.98 0.20125,1.48625" />
    <path
       id="path7021"
       style="fill:#ffffff;fill-opacity:1;fill-rule:nonzero;stroke:none"
       d="m 288.17799,517.2188 -4.88875,0 c 0,0 0,1.10125 0.11,2.7525 l 4.6675,0 c 0.10875,-1.65125 0.11125,-2.7525 0.11125,-2.7525" />
    <path
       id="path7029"
       style="fill:#ffffff;fill-opacity:1;fill-rule:nonzero;stroke:none"
       d="m 281.66186,527.71842 0.8475,1.11 6.44,0 0.8375,-1.11 -8.125,0 z" />
    <path
       id="path7033"
       style="fill:#ffffff;fill-opacity:1;fill-rule:nonzero;stroke:none"
       d="m 283.43486,530.04717 0.69875,0.92375 3.19875,0 0.69875,-0.92375 -4.59625,0 z" />
  </g>
</svg>
