<?xml version="1.0" encoding="UTF-8" standalone="no"?>
<svg
   xmlns:dc="http://purl.org/dc/elements/1.1/"
   xmlns:cc="http://creativecommons.org/ns#"
   xmlns:rdf="http://www.w3.org/1999/02/22-rdf-syntax-ns#"
   xmlns:svg="http://www.w3.org/2000/svg"
   xmlns="http://www.w3.org/2000/svg"
   version="1.1"
   id="svg10190"
   viewBox="0 0 29.759061 27.3725"
   height="7.7251277mm"
   width="8.3986683mm">
  <defs
     id="defs10192" />
  <metadata
     id="metadata10195">
    <rdf:RDF>
      <cc:Work
         rdf:about="">
        <dc:format>image/svg+xml</dc:format>
        <dc:type
           rdf:resource="http://purl.org/dc/dcmitype/StillImage" />
        <dc:title></dc:title>
      </cc:Work>
    </rdf:RDF>
  </metadata>
  <g
     transform="translate(-216.54905,-724.39025)"
     id="layer1">
    <path
       id="path6758"
       style="fill:#0a0c0d;fill-opacity:1;fill-rule:nonzero;stroke:none"
       d="m 226.78132,751.24199 c -1.62375,0 -3.6175,-1.15125 -4.42875,-2.55625 l -4.64875,-8.05125 c -0.8125,-1.405 -0.8125,-3.7075 0,-5.11375 l 4.64875,-8.0525 c 0.8125,-1.40625 2.805,-2.5575 4.42875,-2.5575 l 9.29625,0 c 1.62375,0 3.6175,1.15125 4.42875,2.5575 l 4.64875,8.0525 c 0.81125,1.40625 0.81125,3.70875 -0.001,5.115 l -4.6475,8.04875 c -0.81125,1.40625 -2.805,2.5575 -4.42875,2.5575 l -9.29625,0 z" />
    <path
       id="path6762"
       style="fill:none;stroke:#3a3a3a;stroke-width:1.12874997;stroke-linecap:butt;stroke-linejoin:miter;stroke-miterlimit:4;stroke-dasharray:none;stroke-opacity:1"
       d="m 226.79532,751.19837 c -1.61875,0 -3.60625,-1.1475 -4.41625,-2.54875 l -4.63375,-8.02375 c -0.81,-1.40125 -0.81,-3.695 0,-5.09625 l 4.635,-8.02625 c 0.80875,-1.4025 2.79625,-2.54875 4.415,-2.54875 l 9.26875,0 c 1.61875,0 3.605,1.14625 4.415,2.54875 l 4.63375,8.02625 c 0.80875,1.40125 0.80875,3.695 0,5.0975 l -4.63375,8.0225 c -0.81,1.40125 -2.79625,2.54875 -4.415,2.54875 l -9.26875,0 z" />
    <path
       d="m 239.29312,743.76398 -15.37197,0 7.68598,-13.31251 z"
       id="path10750"
       style="fill:none;fill-opacity:1;stroke:#3a3a3a;stroke-width:1.91515064;stroke-miterlimit:4;stroke-dasharray:none;stroke-dashoffset:0;stroke-opacity:1" />
  </g>
</svg>
