<?xml version="1.0" encoding="UTF-8" standalone="no"?>
<!-- Created with Inkscape (http://www.inkscape.org/) -->

<svg
   xmlns:dc="http://purl.org/dc/elements/1.1/"
   xmlns:cc="http://creativecommons.org/ns#"
   xmlns:rdf="http://www.w3.org/1999/02/22-rdf-syntax-ns#"
   xmlns:svg="http://www.w3.org/2000/svg"
   xmlns="http://www.w3.org/2000/svg"
   xmlns:sodipodi="http://sodipodi.sourceforge.net/DTD/sodipodi-0.dtd"
   xmlns:inkscape="http://www.inkscape.org/namespaces/inkscape"
   width="8.3986683mm"
   height="7.7251277mm"
   viewBox="0 0 29.759061 27.3725"
   id="svg7462"
   version="1.1"
   inkscape:version="0.91 r13725"
   sodipodi:docname="move.svg">
  <defs
     id="defs7464" />
  <sodipodi:namedview
     id="base"
     pagecolor="#ffffff"
     bordercolor="#666666"
     borderopacity="1.0"
     inkscape:pageopacity="0.0"
     inkscape:pageshadow="2"
     inkscape:zoom="5.656854"
     inkscape:cx="-5.5169808"
     inkscape:cy="-24.732705"
     inkscape:document-units="px"
     inkscape:current-layer="layer1"
     showgrid="false"
     fit-margin-top="0"
     fit-margin-left="0"
     fit-margin-right="0"
     fit-margin-bottom="0"
     showguides="true"
     inkscape:guide-bbox="true"
     inkscape:window-width="1594"
     inkscape:window-height="857"
     inkscape:window-x="0"
     inkscape:window-y="40"
     inkscape:window-maximized="0">
    <sodipodi:guide
       position="14.875005,5.8632767"
       orientation="1,0"
       id="guide8030" />
  </sodipodi:namedview>
  <metadata
     id="metadata7467">
    <rdf:RDF>
      <cc:Work
         rdf:about="">
        <dc:format>image/svg+xml</dc:format>
        <dc:type
           rdf:resource="http://purl.org/dc/dcmitype/StillImage" />
        <dc:title></dc:title>
      </cc:Work>
    </rdf:RDF>
  </metadata>
  <g
     inkscape:label="Layer 1"
     inkscape:groupmode="layer"
     id="layer1"
     transform="translate(-382.26333,-644.39025)">
    <path
       d="m 392.4956,671.24199 c -1.62375,0 -3.6175,-1.15125 -4.42875,-2.55625 l -4.64875,-8.05125 c -0.8125,-1.405 -0.8125,-3.7075 0,-5.11375 l 4.64875,-8.0525 c 0.8125,-1.40625 2.805,-2.5575 4.42875,-2.5575 l 9.29625,0 c 1.62375,0 3.6175,1.15125 4.42875,2.5575 l 4.64875,8.0525 c 0.81125,1.40625 0.81125,3.70875 -10e-4,5.115 l -4.6475,8.04875 c -0.81125,1.40625 -2.805,2.5575 -4.42875,2.5575 l -9.29625,0 z"
       style="fill:#0a0c0d;fill-opacity:1;fill-rule:nonzero;stroke:none"
       id="path6758"
       inkscape:connector-curvature="0" />
    <path
       d="m 392.5096,671.19837 c -1.61875,0 -3.60625,-1.1475 -4.41625,-2.54875 l -4.63375,-8.02375 c -0.81,-1.40125 -0.81,-3.695 0,-5.09625 l 4.635,-8.02625 c 0.80875,-1.4025 2.79625,-2.54875 4.415,-2.54875 l 9.26875,0 c 1.61875,0 3.605,1.14625 4.415,2.54875 l 4.63375,8.02625 c 0.80875,1.40125 0.80875,3.695 0,5.0975 l -4.63375,8.0225 c -0.81,1.40125 -2.79625,2.54875 -4.415,2.54875 l -9.26875,0 z"
       style="fill:none;stroke:#44aae4;stroke-width:1.12874997;stroke-linecap:butt;stroke-linejoin:miter;stroke-miterlimit:4;stroke-dasharray:none;stroke-opacity:1"
       id="path6762"
       inkscape:connector-curvature="0" />
    <path
       inkscape:connector-curvature="0"
       id="path10919-7"
       style="fill:#44aae4;fill-opacity:1;stroke:#44aae4;stroke-width:1.24128544;stroke-linecap:butt;stroke-linejoin:miter;stroke-miterlimit:4;stroke-dasharray:none;stroke-opacity:1"
       d="m 391.74923,658.1611 3.05132,4.96932 2.33368,3.82773 2.33369,-3.82773 3.01794,-4.96932 -3.71053,0.79057 c 0.57021,-4.43821 0.57577,-9.50826 0.57577,-9.50826 l -4.43373,0 c 0,0 0.002,5.07311 0.5869,9.51742 l -3.75504,-0.79973 z" />
  </g>
</svg>
