<?xml version="1.0" encoding="UTF-8" standalone="no"?>
<svg
   xmlns:dc="http://purl.org/dc/elements/1.1/"
   xmlns:cc="http://creativecommons.org/ns#"
   xmlns:rdf="http://www.w3.org/1999/02/22-rdf-syntax-ns#"
   xmlns:svg="http://www.w3.org/2000/svg"
   xmlns="http://www.w3.org/2000/svg"
   xmlns:sodipodi="http://sodipodi.sourceforge.net/DTD/sodipodi-0.dtd"
   xmlns:inkscape="http://www.inkscape.org/namespaces/inkscape"
   version="1.1"
   id="svg8733"
   viewBox="0 0 31.447218 29.180008"
   height="8.2352467mm"
   width="8.875103mm"
   inkscape:version="0.91 r13725"
   sodipodi:docname="noise_no.svg">
  <sodipodi:namedview
     pagecolor="#ffffff"
     bordercolor="#666666"
     borderopacity="1"
     objecttolerance="10"
     gridtolerance="10"
     guidetolerance="10"
     inkscape:pageopacity="0"
     inkscape:pageshadow="2"
     inkscape:window-width="1594"
     inkscape:window-height="857"
     id="namedview8346"
     showgrid="false"
     inkscape:zoom="16.175458"
     inkscape:cx="13.68628"
     inkscape:cy="11.570227"
     inkscape:window-x="0"
     inkscape:window-y="40"
     inkscape:window-maximized="0"
     inkscape:current-layer="svg8733" />
  <defs
     id="defs8735" />
  <metadata
     id="metadata8738">
    <rdf:RDF>
      <cc:Work
         rdf:about="">
        <dc:format>image/svg+xml</dc:format>
        <dc:type
           rdf:resource="http://purl.org/dc/dcmitype/StillImage" />
        <dc:title></dc:title>
      </cc:Work>
    </rdf:RDF>
  </metadata>
  <g
     transform="translate(-299.564,-342.32573)"
     id="layer1">
    <path
       id="path10947"
       style="fill:#000000;fill-opacity:1;fill-rule:nonzero;stroke:none"
       d="m 310.47057,370.95049 c -1.73125,0 -3.85625,-1.22625 -4.72125,-2.725 l -4.955,-8.5825 c -0.86625,-1.49876 -0.86625,-3.95251 -0.001,-5.45126 l 4.95625,-8.585 c 0.86625,-1.49875 2.99,-2.72625 4.72125,-2.72625 l 9.91,0 c 1.73125,0 3.85625,1.2275 4.72126,2.72625 l 4.955,8.585 c 0.865,1.49875 0.865,3.9525 0,5.45251 l -4.955,8.58 c -0.86501,1.5 -2.99001,2.72625 -4.72126,2.72625 l -9.91,0 z" />
    <path
       id="path10951"
       style="fill:none;stroke:#3a3a3a;stroke-width:1.14625001;stroke-linecap:butt;stroke-linejoin:miter;stroke-miterlimit:4;stroke-dasharray:none;stroke-opacity:1"
       d="m 310.47619,370.93261 c -1.72875,0 -3.85125,-1.225 -4.71625,-2.7225 l -4.94875,-8.57 c -0.865,-1.49751 -0.86625,-3.94751 -0.001,-5.44501 l 4.95125,-8.57375 c 0.86375,-1.4975 2.98625,-2.7225 4.715,-2.7225 l 9.89875,0 c 1.72875,0 3.85125,1.225 4.71501,2.7225 l 4.95,8.57375 c 0.86375,1.4975 -0.001,5.44501 -0.001,5.44501 l -4.9475,8.57 c -0.86501,1.4975 -2.98751,2.7225 -4.71626,2.7225 l -9.89875,0 z" />
    <path
       id="path10955"
       style="fill:none;stroke:#3a3a3a;stroke-width:1.06500006;stroke-linecap:butt;stroke-linejoin:round;stroke-miterlimit:4;stroke-dasharray:none;stroke-opacity:1"
       d="m 310.21557,365.94149 -3.9575,-3.4125 5.20375,-1.8475 7.91375,0 5.20375,1.8475 -3.9575,3.4125 -10.40625,0 z" />
    <path
       id="path10967"
       style="fill:#3a3a3a;fill-opacity:1;fill-rule:nonzero;stroke:none"
       d="m 306.52344,355.02011 6.31875,0.88375 c -0.6925,-4.11625 -1.615,-8.56125 -1.625,-8.60875 l -0.12875,-0.62 8.7175,0 -0.13,0.62125 c -0.01,0.0462 -0.93625,4.49125 -1.61625,8.5975 l 6.26625,-0.8725 -8.90125,9.73751 -8.90125,-9.73876 z" />
  </g>
</svg>
