<?xml version="1.0" encoding="UTF-8" standalone="no"?>
<svg
   xmlns:dc="http://purl.org/dc/elements/1.1/"
   xmlns:cc="http://creativecommons.org/ns#"
   xmlns:rdf="http://www.w3.org/1999/02/22-rdf-syntax-ns#"
   xmlns:svg="http://www.w3.org/2000/svg"
   xmlns="http://www.w3.org/2000/svg"
   version="1.1"
   id="svg8733"
   viewBox="0 0 27.901933 25.599998"
   height="7.2248883mm"
   width="7.8745451mm">
  <defs
     id="defs8735" />
  <metadata
     id="metadata8738">
    <rdf:RDF>
      <cc:Work
         rdf:about="">
        <dc:format>image/svg+xml</dc:format>
        <dc:type
           rdf:resource="http://purl.org/dc/dcmitype/StillImage" />
        <dc:title></dc:title>
      </cc:Work>
    </rdf:RDF>
  </metadata>
  <g
     transform="translate(-264.47478,-360.88109)"
     id="layer1">
    <path
       id="path7181"
       style="fill:#ed192e;fill-opacity:1;fill-rule:nonzero;stroke:none"
       d="m 273.95349,386.03734 c -1.46375,0 -3.26,-1.0375 -3.9925,-2.305 l -4.47125,-7.745 c -0.7325,-1.2675 -0.7325,-3.34125 0,-4.61 l 4.47125,-7.74625 c 0.7325,-1.26875 2.52875,-2.305 3.9925,-2.305 l 8.94375,0 c 1.46375,0 3.26,1.03625 3.9925,2.305 l 4.4725,7.74625 c 0.73125,1.26875 0.73125,3.3425 0,4.61 l -4.4725,7.745 c -0.73125,1.2675 -2.52875,2.305 -3.9925,2.305 l -8.94375,0 z" />
    <path
       id="path7185"
       style="fill:none;stroke:#0a0c0d;stroke-width:1.00999999;stroke-linecap:butt;stroke-linejoin:miter;stroke-miterlimit:4;stroke-dasharray:none;stroke-opacity:1"
       d="m 273.97387,385.97609 c -1.4575,0 -3.24625,-1.0325 -3.97375,-2.2925 l -4.4525,-7.7075 c -0.7275,-1.26125 -0.72875,-3.325 0,-4.5875 l 4.4525,-7.7075 c 0.72875,-1.2625 2.51625,-2.295 3.97375,-2.295 l 8.90375,0 c 1.4575,0 3.245,1.0325 3.97375,2.295 l 4.4525,7.7075 c 0.72875,1.2625 0.7275,3.32625 0,4.5875 l -4.4525,7.7075 c -0.7275,1.26 -2.51625,2.2925 -3.97375,2.2925 l -8.90375,0 z" />
    <path
       id="path7189"
       style="fill:#11100e;fill-opacity:1;fill-rule:nonzero;stroke:none"
       d="m 267.96649,373.16934 9.57125,0 -4.78625,-8.28875 -4.785,8.28875 z" />
    <path
       id="path7193"
       style="fill:#11100e;fill-opacity:1;fill-rule:nonzero;stroke:none"
       d="m 283.21099,364.36796 -9.5725,0 4.78625,8.29 4.78625,-8.29 z" />
    <path
       id="path7197"
       style="fill:#11100e;fill-opacity:1;fill-rule:nonzero;stroke:none"
       d="m 283.21099,382.99459 -4.78625,-8.29 -4.78625,8.29 9.5725,0 z" />
    <path
       id="path7201"
       style="fill:#11100e;fill-opacity:1;fill-rule:nonzero;stroke:none"
       d="m 277.53812,374.19334 -9.57125,0 4.785,8.28875 4.78625,-8.28875 z" />
    <path
       id="path7205"
       style="fill:#11100e;fill-opacity:1;fill-rule:nonzero;stroke:none"
       d="m 279.31149,373.16934 9.57375,0 -4.7875,-8.28875 -4.78625,8.28875 z" />
    <path
       id="path7209"
       style="fill:#11100e;fill-opacity:1;fill-rule:nonzero;stroke:none"
       d="m 288.88461,374.19334 -9.57375,0 4.7875,8.28875 4.78625,-8.28875 z" />
  </g>
</svg>
