<?xml version="1.0" encoding="UTF-8" standalone="no"?>
<svg
   xmlns:dc="http://purl.org/dc/elements/1.1/"
   xmlns:cc="http://creativecommons.org/ns#"
   xmlns:rdf="http://www.w3.org/1999/02/22-rdf-syntax-ns#"
   xmlns:svg="http://www.w3.org/2000/svg"
   xmlns="http://www.w3.org/2000/svg"
   version="1.1"
   id="svg8733"
   viewBox="0 0 32.257189 29.554997"
   height="8.3410769mm"
   width="9.1036949mm">
  <defs
     id="defs8735" />
  <metadata
     id="metadata8738">
    <rdf:RDF>
      <cc:Work
         rdf:about="">
        <dc:format>image/svg+xml</dc:format>
        <dc:type
           rdf:resource="http://purl.org/dc/dcmitype/StillImage" />
        <dc:title></dc:title>
      </cc:Work>
    </rdf:RDF>
  </metadata>
  <g
     transform="translate(-256.00189,-357.00359)"
     id="layer1">
    <path
       id="path10975"
       style="fill:#0a0c0d;fill-opacity:1;fill-rule:nonzero;stroke:none"
       d="m 266.78189,386.55859 c -1.75,0 -3.89875,-1.24 -4.775,-2.75625 l -5.34875,-9.26375 c -0.875,-1.515 -0.875,-3.99625 0,-5.5125 l 5.34875,-9.265 c 0.87625,-1.5175 3.025,-2.7575 4.775,-2.7575 l 10.6975,0 c 1.75,0 3.89875,1.24 4.775,2.7575 l 5.3475,9.265 c 0.87625,1.51625 0.87625,3.9975 0,5.5125 l -5.3475,9.26375 c -0.87625,1.51625 -3.025,2.75625 -4.775,2.75625 l -10.6975,0 z" />
    <path
       id="path10983"
       style="fill:#ffffff;fill-opacity:1;fill-rule:nonzero;stroke:none"
       d="m 263.98539,368.81347 0,8.05375 6.94,4.0075 0,-8.055 -6.94,-4.00625 z" />
    <path
       id="path10987"
       style="fill:#ffffff;fill-opacity:1;fill-rule:nonzero;stroke:none"
       d="m 272.00314,371.35609 -7.90375,-4.5625 8.03125,-4.63625 7.90375,4.56125 -8.03125,4.6375 z m -5.81625,-4.5625 5.81625,3.3575 5.945,-3.4325 -5.8175,-3.3575 -5.94375,3.4325 z" />
    <path
       id="path10991"
       style="fill:#ffffff;fill-opacity:1;fill-rule:nonzero;stroke:none"
       d="m 273.15126,380.97997 7.125,-4.1125 0,-7.985 -7.12125,4.10625 -0.004,7.99125 z" />
  </g>
</svg>
